<svg id="Lock_blue_icon_60" xmlns="http://www.w3.org/2000/svg" xmlns:xlink="http://www.w3.org/1999/xlink" width="60" height="60" viewBox="0 0 60 60">
  <defs>
    <linearGradient id="linear-gradient" x1="0.663" y1="0.389" x2="0.788" y2="0.844" gradientUnits="objectBoundingBox">
      <stop offset="0" stop-color="#00b0f0"/>
      <stop offset="1" stop-color="#00d8f9"/>
    </linearGradient>
    <filter id="Объединение_37" x="-13" y="-12" width="86" height="96" filterUnits="userSpaceOnUse">
      <feOffset dy="6" input="SourceAlpha"/>
      <feGaussianBlur stdDeviation="6" result="blur"/>
      <feFlood flood-color="#b2bdc5" flood-opacity="0.502"/>
      <feComposite operator="in" in2="blur"/>
      <feComposite in="SourceGraphic"/>
    </filter>
    <clipPath id="clip-path">
      <g transform="matrix(1, 0, 0, 1, 0, 0)" filter="url(#Объединение_37)">
        <path id="Объединение_37-2" data-name="Объединение 37" d="M4.374,60A4.294,4.294,0,0,1,0,55.8V22.2a4.215,4.215,0,0,1,1.311-3A4.36,4.36,0,0,1,4.374,18h1.89a18.756,18.756,0,0,1,36.013-6.548A18.61,18.61,0,0,1,43.736,18h1.889A4.3,4.3,0,0,1,50,22.2V55.8A4.3,4.3,0,0,1,45.625,60ZM7.531,28.23V49.765a3.067,3.067,0,0,0,3.125,3H39.337a3.068,3.068,0,0,0,3.125-3V28.23a3.068,3.068,0,0,0-3.125-3H10.656A3.067,3.067,0,0,0,7.531,28.23ZM36.2,18a11.216,11.216,0,0,0-22.413,0ZM23.781,49.144a2.452,2.452,0,0,1-2.5-2.4V42.319a7.184,7.184,0,0,1-3.749-6.256,7.389,7.389,0,0,1,7.534-7.233A7.389,7.389,0,0,1,32.6,36.063a7.184,7.184,0,0,1-3.753,6.258v4.423a2.452,2.452,0,0,1-2.5,2.4Z" transform="translate(0 0)" fill="url(#linear-gradient)"/>
      </g>
    </clipPath>
    <filter id="Прямоугольник_257" x="-20" y="-12" width="96" height="96" filterUnits="userSpaceOnUse">
      <feOffset dy="6" input="SourceAlpha"/>
      <feGaussianBlur stdDeviation="6" result="blur-2"/>
      <feFlood flood-color="#b2bdc5" flood-opacity="0.502"/>
      <feComposite operator="in" in2="blur-2"/>
      <feComposite in="SourceGraphic"/>
    </filter>
  </defs>
  <rect id="Прямоугольник_1770" data-name="Прямоугольник 1770" width="60" height="60" fill="#fff" opacity="0"/>
  <g id="Группа_масок_24" data-name="Группа масок 24" transform="translate(5)" clip-path="url(#clip-path)">
    <g transform="matrix(1, 0, 0, 1, -5, 0)" filter="url(#Прямоугольник_257)">
      <rect id="Прямоугольник_257-2" data-name="Прямоугольник 257" width="60" height="60" transform="translate(-2 0)" fill="url(#linear-gradient)"/>
    </g>
  </g>
</svg>
